{
  "success": true,
  "phonenumber": "221074528",
  "authtoken": "78e0f132fa16cf57a54c354dcc61c48855138a45e4d289.43411568.2Degree2",
  "heading": "",
  "data": {
    "contract_type": "P",
    "profile_type": "I",
    "first_name": "James",
    "last_name": "Fairbairn",
    "slc": "1433512",
    "notification_number": "221074528",
    "login_details": {
      "ax21:loginId": "221074528",
      "ax21:resultCode": "0",
      "ax21:resultMessage": "Success",
      "ax21:timeStamp": "1427343941933"
    }
  }
}